<?xml version="1.0" encoding="UTF-8" standalone="no" ?><gpx xmlns="http://www.topografix.com/GPX/1/1" xmlns:xsi="http://www.w3.org/2001/XMLSchema-instance" creator="GraphHopper" version="1.1" xmlns:gh="https://graphhopper.com/public/schema/gpx/1.1">
<metadata><copyright author="OpenStreetMap contributors"/><link href="http://graphhopper.com"><text>GraphHopper GPX</text></link><time>2024-05-30T11:39:23.908Z</time></metadata>
<trk>
<name>GraphHopper Track</name><desc></desc>
<trkseg><trkpt lat="51.995721" lon="5.894819"><ele>48.6</ele></trkpt>
<trkpt lat="51.995905" lon="5.894816"><ele>48.3</ele></trkpt>
<trkpt lat="51.995979" lon="5.894843"><ele>48.1</ele></trkpt>
<trkpt lat="51.996073" lon="5.894936"><ele>47.9</ele></trkpt>
<trkpt lat="51.996137" lon="5.895023"><ele>47.7</ele></trkpt>
<trkpt lat="51.996204" lon="5.895138"><ele>47.0</ele></trkpt>
<trkpt lat="51.996335" lon="5.895439"><ele>45.1</ele></trkpt>
<trkpt lat="51.996365" lon="5.895485"><ele>44.8</ele></trkpt>
<trkpt lat="51.996460" lon="5.895530"><ele>44.0</ele></trkpt>
<trkpt lat="51.996547" lon="5.895618"><ele>43.3</ele></trkpt>
<trkpt lat="51.996599" lon="5.895684"><ele>43.1</ele></trkpt>
<trkpt lat="51.996784" lon="5.895870"><ele>42.9</ele></trkpt>
<trkpt lat="51.996854" lon="5.895904"><ele>42.8</ele></trkpt>
<trkpt lat="51.996874" lon="5.895914"><ele>42.8</ele></trkpt>
<trkpt lat="51.997126" lon="5.895666"><ele>43.5</ele></trkpt>
<trkpt lat="51.998641" lon="5.894202"><ele>48.5</ele></trkpt>
<trkpt lat="51.998754" lon="5.894119"><ele>48.8</ele></trkpt>
<trkpt lat="51.998776" lon="5.894077"><ele>48.9</ele></trkpt>
<trkpt lat="51.998730" lon="5.893817"><ele>49.3</ele></trkpt>
<trkpt lat="51.998702" lon="5.893525"><ele>49.7</ele></trkpt>
<trkpt lat="51.998715" lon="5.893310"><ele>50.0</ele></trkpt>
<trkpt lat="51.998745" lon="5.893156"><ele>50.3</ele></trkpt>
<trkpt lat="51.998761" lon="5.893020"><ele>50.5</ele></trkpt>
<trkpt lat="51.999031" lon="5.892924"><ele>50.4</ele></trkpt>
<trkpt lat="51.999203" lon="5.892800"><ele>50.3</ele></trkpt>
<trkpt lat="51.999411" lon="5.892621"><ele>51.4</ele></trkpt>
<trkpt lat="51.999499" lon="5.892495"><ele>52.0</ele></trkpt>
<trkpt lat="51.999538" lon="5.892413"><ele>52.3</ele></trkpt>
<trkpt lat="51.999607" lon="5.892204"><ele>53.1</ele></trkpt>
<trkpt lat="51.999693" lon="5.891895"><ele>53.9</ele></trkpt>
<trkpt lat="51.999688" lon="5.891762"><ele>54.7</ele></trkpt>
<trkpt lat="51.999667" lon="5.891577"><ele>55.8</ele></trkpt>
<trkpt lat="51.999613" lon="5.891433"><ele>56.7</ele></trkpt>
<trkpt lat="51.999584" lon="5.891405"><ele>57.0</ele></trkpt>
<trkpt lat="51.999638" lon="5.891298"><ele>57.5</ele></trkpt>
<trkpt lat="51.999718" lon="5.891191"><ele>58.1</ele></trkpt>
<trkpt lat="51.999802" lon="5.891137"><ele>58.7</ele></trkpt>
<trkpt lat="51.999878" lon="5.891039"><ele>59.0</ele></trkpt>
<trkpt lat="51.999938" lon="5.890877"><ele>59.5</ele></trkpt>
<trkpt lat="51.999965" lon="5.890840"><ele>59.6</ele></trkpt>
<trkpt lat="52.000022" lon="5.890809"><ele>59.9</ele></trkpt>
<trkpt lat="52.000110" lon="5.890782"><ele>60.1</ele></trkpt>
<trkpt lat="52.000126" lon="5.890469"><ele>61.4</ele></trkpt>
<trkpt lat="52.000133" lon="5.890339"><ele>62.7</ele></trkpt>
<trkpt lat="52.000121" lon="5.890167"><ele>63.8</ele></trkpt>
<trkpt lat="52.000107" lon="5.890076"><ele>64.3</ele></trkpt>
<trkpt lat="52.000076" lon="5.889956"><ele>65.1</ele></trkpt>
<trkpt lat="52.000045" lon="5.889869"><ele>65.7</ele></trkpt>
<trkpt lat="51.999984" lon="5.889757"><ele>66.6</ele></trkpt>
<trkpt lat="51.999837" lon="5.889625"><ele>67.4</ele></trkpt>
<trkpt lat="51.999866" lon="5.889197"><ele>69.6</ele></trkpt>
<trkpt lat="51.999881" lon="5.888687"><ele>72.8</ele></trkpt>
<trkpt lat="51.999829" lon="5.888469"><ele>74.3</ele></trkpt>
<trkpt lat="51.999827" lon="5.888415"><ele>74.6</ele></trkpt>
<trkpt lat="51.999859" lon="5.888295"><ele>75.4</ele></trkpt>
<trkpt lat="51.999916" lon="5.888132"><ele>76.6</ele></trkpt>
<trkpt lat="51.999983" lon="5.888001"><ele>77.6</ele></trkpt>
<trkpt lat="52.000114" lon="5.887878"><ele>77.8</ele></trkpt>
<trkpt lat="52.000321" lon="5.887635"><ele>78.0</ele></trkpt>
<trkpt lat="52.000562" lon="5.887437"><ele>78.3</ele></trkpt>
<trkpt lat="52.000871" lon="5.887136"><ele>78.7</ele></trkpt>
<trkpt lat="52.000986" lon="5.887175"><ele>77.6</ele></trkpt>
<trkpt lat="52.001024" lon="5.887158"><ele>77.3</ele></trkpt>
<trkpt lat="52.001080" lon="5.887109"><ele>77.0</ele></trkpt>
<trkpt lat="52.001776" lon="5.886147"><ele>72.4</ele></trkpt>
<trkpt lat="52.001858" lon="5.886032"><ele>72.3</ele></trkpt>
<trkpt lat="52.002266" lon="5.885455"><ele>74.4</ele></trkpt>
<trkpt lat="52.002275" lon="5.885487"><ele>74.3</ele></trkpt>
<trkpt lat="52.002334" lon="5.885704"><ele>74.3</ele></trkpt>
<trkpt lat="52.002415" lon="5.885922"><ele>74.1</ele></trkpt>
<trkpt lat="52.003036" lon="5.887303"><ele>73.2</ele></trkpt>
<trkpt lat="52.003068" lon="5.887266"><ele>73.6</ele></trkpt>
<trkpt lat="52.003247" lon="5.887035"><ele>75.8</ele></trkpt>
<trkpt lat="52.003297" lon="5.886973"><ele>76.4</ele></trkpt>
<trkpt lat="52.003429" lon="5.886781"><ele>77.2</ele></trkpt>
<trkpt lat="52.003518" lon="5.886616"><ele>77.8</ele></trkpt>
<trkpt lat="52.003613" lon="5.886464"><ele>78.4</ele></trkpt>
<trkpt lat="52.003679" lon="5.886587"><ele>78.2</ele></trkpt>
<trkpt lat="52.003727" lon="5.886732"><ele>78.4</ele></trkpt>
<trkpt lat="52.003750" lon="5.886756"><ele>78.4</ele></trkpt>
<trkpt lat="52.003792" lon="5.886770"><ele>78.5</ele></trkpt>
<trkpt lat="52.003898" lon="5.886702"><ele>78.6</ele></trkpt>
<trkpt lat="52.004107" lon="5.886473"><ele>79.0</ele></trkpt>
<trkpt lat="52.004929" lon="5.885456"><ele>80.5</ele></trkpt>
<trkpt lat="52.005717" lon="5.884475"><ele>82.0</ele></trkpt>
<trkpt lat="52.005764" lon="5.884529"><ele>81.8</ele></trkpt>
<trkpt lat="52.005819" lon="5.884685"><ele>81.5</ele></trkpt>
<trkpt lat="52.005881" lon="5.884784"><ele>81.3</ele></trkpt>
<trkpt lat="52.005978" lon="5.884886"><ele>80.9</ele></trkpt>
<trkpt lat="52.006012" lon="5.884918"><ele>80.7</ele></trkpt>
<trkpt lat="52.007046" lon="5.887312"><ele>70.7</ele></trkpt>
<trkpt lat="52.007156" lon="5.887506"><ele>69.8</ele></trkpt>
<trkpt lat="52.007179" lon="5.887552"><ele>69.8</ele></trkpt>
<trkpt lat="52.007231" lon="5.887757"><ele>69.8</ele></trkpt>
<trkpt lat="52.007247" lon="5.887804"><ele>69.8</ele></trkpt>
<trkpt lat="52.006936" lon="5.888281"><ele>71.4</ele></trkpt>
<trkpt lat="52.006575" lon="5.888790"><ele>73.2</ele></trkpt>
<trkpt lat="52.006326" lon="5.888999"><ele>72.7</ele></trkpt>
<trkpt lat="52.006250" lon="5.889091"><ele>72.5</ele></trkpt>
<trkpt lat="52.006160" lon="5.889163"><ele>72.4</ele></trkpt>
<trkpt lat="52.006026" lon="5.889243"><ele>72.1</ele></trkpt>
<trkpt lat="52.005621" lon="5.889564"><ele>71.3</ele></trkpt>
<trkpt lat="52.005476" lon="5.889730"><ele>71.0</ele></trkpt>
<trkpt lat="52.005311" lon="5.889892"><ele>69.8</ele></trkpt>
<trkpt lat="52.004949" lon="5.890319"><ele>67.1</ele></trkpt>
<trkpt lat="52.004874" lon="5.890380"><ele>66.5</ele></trkpt>
<trkpt lat="52.004793" lon="5.890416"><ele>66.0</ele></trkpt>
<trkpt lat="52.004661" lon="5.890438"><ele>65.3</ele></trkpt>
<trkpt lat="52.004517" lon="5.890663"><ele>64.7</ele></trkpt>
<trkpt lat="52.004490" lon="5.890688"><ele>64.7</ele></trkpt>
<trkpt lat="52.004444" lon="5.890703"><ele>64.7</ele></trkpt>
<trkpt lat="52.004406" lon="5.890690"><ele>64.6</ele></trkpt>
<trkpt lat="52.004377" lon="5.890695"><ele>64.6</ele></trkpt>
<trkpt lat="52.004154" lon="5.890896"><ele>64.6</ele></trkpt>
<trkpt lat="52.003805" lon="5.891238"><ele>64.5</ele></trkpt>
<trkpt lat="52.003763" lon="5.891292"><ele>64.5</ele></trkpt>
<trkpt lat="52.003695" lon="5.891477"><ele>64.5</ele></trkpt>
<trkpt lat="52.003651" lon="5.891433"><ele>64.4</ele></trkpt>
<trkpt lat="52.003546" lon="5.891545"><ele>63.3</ele></trkpt>
<trkpt lat="52.003432" lon="5.891584"><ele>62.2</ele></trkpt>
<trkpt lat="52.003246" lon="5.891728"><ele>60.4</ele></trkpt>
<trkpt lat="52.003108" lon="5.891804"><ele>59.1</ele></trkpt>
<trkpt lat="52.002927" lon="5.891853"><ele>57.6</ele></trkpt>
<trkpt lat="52.002885" lon="5.891823"><ele>57.5</ele></trkpt>
<trkpt lat="52.002772" lon="5.891772"><ele>57.3</ele></trkpt>
<trkpt lat="52.002576" lon="5.891713"><ele>57.5</ele></trkpt>
<trkpt lat="52.002222" lon="5.891645"><ele>58.0</ele></trkpt>
<trkpt lat="52.001936" lon="5.891564"><ele>58.3</ele></trkpt>
<trkpt lat="52.001855" lon="5.891552"><ele>58.4</ele></trkpt>
<trkpt lat="52.001835" lon="5.891674"><ele>58.2</ele></trkpt>
<trkpt lat="52.001735" lon="5.891905"><ele>57.8</ele></trkpt>
<trkpt lat="52.001623" lon="5.892131"><ele>57.4</ele></trkpt>
<trkpt lat="52.001548" lon="5.892300"><ele>57.6</ele></trkpt>
<trkpt lat="52.001469" lon="5.892430"><ele>57.7</ele></trkpt>
<trkpt lat="52.001456" lon="5.892451"><ele>57.8</ele></trkpt>
<trkpt lat="52.001322" lon="5.893100"><ele>59.0</ele></trkpt>
<trkpt lat="52.001276" lon="5.893191"><ele>59.2</ele></trkpt>
<trkpt lat="52.001201" lon="5.893292"><ele>58.9</ele></trkpt>
<trkpt lat="52.001010" lon="5.893423"><ele>58.1</ele></trkpt>
<trkpt lat="52.000895" lon="5.893464"><ele>57.6</ele></trkpt>
<trkpt lat="52.000758" lon="5.893470"><ele>57.0</ele></trkpt>
<trkpt lat="52.000432" lon="5.893422"><ele>56.8</ele></trkpt>
<trkpt lat="52.000352" lon="5.893430"><ele>56.8</ele></trkpt>
<trkpt lat="52.000300" lon="5.893447"><ele>56.7</ele></trkpt>
<trkpt lat="52.000249" lon="5.893478"><ele>56.7</ele></trkpt>
<trkpt lat="52.000200" lon="5.893540"><ele>56.6</ele></trkpt>
<trkpt lat="52.000120" lon="5.893710"><ele>56.6</ele></trkpt>
<trkpt lat="52.000077" lon="5.893894"><ele>56.5</ele></trkpt>
<trkpt lat="52.000052" lon="5.894131"><ele>56.5</ele></trkpt>
<trkpt lat="52.000009" lon="5.894171"><ele>55.9</ele></trkpt>
<trkpt lat="51.999739" lon="5.894424"><ele>55.4</ele></trkpt>
<trkpt lat="51.999490" lon="5.894679"><ele>54.4</ele></trkpt>
<trkpt lat="51.999395" lon="5.894743"><ele>54.1</ele></trkpt>
<trkpt lat="51.998997" lon="5.895068"><ele>52.7</ele></trkpt>
<trkpt lat="51.998943" lon="5.895097"><ele>52.5</ele></trkpt>
<trkpt lat="51.998792" lon="5.895143"><ele>52.0</ele></trkpt>
<trkpt lat="51.998739" lon="5.895171"><ele>51.8</ele></trkpt>
<trkpt lat="51.998713" lon="5.895114"><ele>51.4</ele></trkpt>
<trkpt lat="51.998671" lon="5.895054"><ele>50.8</ele></trkpt>
<trkpt lat="51.998637" lon="5.895027"><ele>50.5</ele></trkpt>
<trkpt lat="51.998621" lon="5.895014"><ele>50.4</ele></trkpt>
<trkpt lat="51.998546" lon="5.895026"><ele>50.1</ele></trkpt>
<trkpt lat="51.998406" lon="5.895128"><ele>49.9</ele></trkpt>
<trkpt lat="51.997563" lon="5.895907"><ele>46.2</ele></trkpt>
<trkpt lat="51.997317" lon="5.896113"><ele>45.2</ele></trkpt>
<trkpt lat="51.997234" lon="5.896212"><ele>44.9</ele></trkpt>
<trkpt lat="51.996998" lon="5.896428"><ele>43.0</ele></trkpt>
<trkpt lat="51.996866" lon="5.896533"><ele>42.0</ele></trkpt>
<trkpt lat="51.996581" lon="5.896818"><ele>39.7</ele></trkpt>
<trkpt lat="51.996543" lon="5.896867"><ele>39.4</ele></trkpt>
<trkpt lat="51.996425" lon="5.897046"><ele>39.2</ele></trkpt>
<trkpt lat="51.996156" lon="5.897311"><ele>38.9</ele></trkpt>
<trkpt lat="51.996142" lon="5.897374"><ele>38.8</ele></trkpt>
<trkpt lat="51.996123" lon="5.897409"><ele>38.8</ele></trkpt>
<trkpt lat="51.996042" lon="5.897505"><ele>38.7</ele></trkpt>
<trkpt lat="51.995916" lon="5.897688"><ele>38.5</ele></trkpt>
<trkpt lat="51.995652" lon="5.898034"><ele>38.2</ele></trkpt>
<trkpt lat="51.995622" lon="5.898086"><ele>38.1</ele></trkpt>
<trkpt lat="51.995618" lon="5.898136"><ele>38.1</ele></trkpt>
<trkpt lat="51.995573" lon="5.898187"><ele>37.8</ele></trkpt>
<trkpt lat="51.995477" lon="5.898198"><ele>37.0</ele></trkpt>
<trkpt lat="51.995456" lon="5.898249"><ele>36.8</ele></trkpt>
<trkpt lat="51.995402" lon="5.898330"><ele>36.5</ele></trkpt>
<trkpt lat="51.995326" lon="5.898197"><ele>35.6</ele></trkpt>
<trkpt lat="51.995302" lon="5.898222"><ele>35.6</ele></trkpt>
<trkpt lat="51.995137" lon="5.898317"><ele>35.7</ele></trkpt>
<trkpt lat="51.994984" lon="5.898322"><ele>35.7</ele></trkpt>
<trkpt lat="51.994926" lon="5.898352"><ele>35.7</ele></trkpt>
<trkpt lat="51.994854" lon="5.898403"><ele>35.7</ele></trkpt>
<trkpt lat="51.994768" lon="5.898490"><ele>35.7</ele></trkpt>
<trkpt lat="51.994682" lon="5.898608"><ele>35.7</ele></trkpt>
<trkpt lat="51.994584" lon="5.898773"><ele>35.8</ele></trkpt>
<trkpt lat="51.994461" lon="5.899047"><ele>35.8</ele></trkpt>
<trkpt lat="51.994409" lon="5.899252"><ele>35.8</ele></trkpt>
<trkpt lat="51.994402" lon="5.899453"><ele>35.8</ele></trkpt>
<trkpt lat="51.994411" lon="5.899557"><ele>36.1</ele></trkpt>
<trkpt lat="51.994439" lon="5.899735"><ele>36.8</ele></trkpt>
<trkpt lat="51.994486" lon="5.899935"><ele>37.6</ele></trkpt>
<trkpt lat="51.994587" lon="5.900259"><ele>38.9</ele></trkpt>
<trkpt lat="51.994629" lon="5.900394"><ele>39.9</ele></trkpt>
<trkpt lat="51.994671" lon="5.900617"><ele>41.3</ele></trkpt>
<trkpt lat="51.994696" lon="5.900867"><ele>42.8</ele></trkpt>
<trkpt lat="51.994676" lon="5.900894"><ele>43.3</ele></trkpt>
<trkpt lat="51.994609" lon="5.900984"><ele>43.7</ele></trkpt>
<trkpt lat="51.994582" lon="5.901011"><ele>44.0</ele></trkpt>
<trkpt lat="51.994562" lon="5.901033"><ele>44.3</ele></trkpt>
<trkpt lat="51.994473" lon="5.901135"><ele>45.2</ele></trkpt>
<trkpt lat="51.994458" lon="5.901150"><ele>45.3</ele></trkpt>
<trkpt lat="51.994368" lon="5.901343"><ele>46.7</ele></trkpt>
<trkpt lat="51.994344" lon="5.901464"><ele>47.4</ele></trkpt>
<trkpt lat="51.994271" lon="5.901662"><ele>48.6</ele></trkpt>
<trkpt lat="51.994183" lon="5.901794"><ele>49.6</ele></trkpt>
<trkpt lat="51.994155" lon="5.901817"><ele>49.8</ele></trkpt>
<trkpt lat="51.993960" lon="5.902220"><ele>51.6</ele></trkpt>
<trkpt lat="51.993910" lon="5.902262"><ele>52.2</ele></trkpt>
<trkpt lat="51.993880" lon="5.902306"><ele>52.6</ele></trkpt>
<trkpt lat="51.993856" lon="5.902367"><ele>53.0</ele></trkpt>
<trkpt lat="51.993823" lon="5.902481"><ele>53.7</ele></trkpt>
<trkpt lat="51.993827" lon="5.902633"><ele>54.6</ele></trkpt>
<trkpt lat="51.993855" lon="5.902794"><ele>55.6</ele></trkpt>
<trkpt lat="51.993901" lon="5.902918"><ele>56.4</ele></trkpt>
<trkpt lat="51.993964" lon="5.903013"><ele>57.2</ele></trkpt>
<trkpt lat="51.994027" lon="5.903073"><ele>57.9</ele></trkpt>
<trkpt lat="51.994114" lon="5.903217"><ele>59.1</ele></trkpt>
<trkpt lat="51.994130" lon="5.903282"><ele>59.5</ele></trkpt>
<trkpt lat="51.994118" lon="5.903615"><ele>61.5</ele></trkpt>
<trkpt lat="51.994127" lon="5.904223"><ele>63.5</ele></trkpt>
<trkpt lat="51.994145" lon="5.904588"><ele>64.8</ele></trkpt>
<trkpt lat="51.994168" lon="5.905046"><ele>66.3</ele></trkpt>
<trkpt lat="51.994144" lon="5.905072"><ele>66.3</ele></trkpt>
<trkpt lat="51.994125" lon="5.905118"><ele>66.4</ele></trkpt>
<trkpt lat="51.994116" lon="5.905199"><ele>66.5</ele></trkpt>
<trkpt lat="51.994129" lon="5.905253"><ele>66.6</ele></trkpt>
<trkpt lat="51.993828" lon="5.905477"><ele>66.5</ele></trkpt>
<trkpt lat="51.993555" lon="5.905588"><ele>66.4</ele></trkpt>
<trkpt lat="51.993561" lon="5.905655"><ele>66.5</ele></trkpt>
<trkpt lat="51.993555" lon="5.905734"><ele>66.6</ele></trkpt>
<trkpt lat="51.993525" lon="5.905893"><ele>66.8</ele></trkpt>
<trkpt lat="51.993457" lon="5.906079"><ele>67.1</ele></trkpt>
<trkpt lat="51.993432" lon="5.906176"><ele>67.2</ele></trkpt>
<trkpt lat="51.993417" lon="5.906312"><ele>67.4</ele></trkpt>
<trkpt lat="51.993416" lon="5.906436"><ele>67.5</ele></trkpt>
<trkpt lat="51.993431" lon="5.906637"><ele>67.8</ele></trkpt>
<trkpt lat="51.993476" lon="5.906906"><ele>68.0</ele></trkpt>
<trkpt lat="51.993354" lon="5.907378"><ele>67.9</ele></trkpt>
<trkpt lat="51.993338" lon="5.907361"><ele>67.9</ele></trkpt>
<trkpt lat="51.992707" lon="5.906452"><ele>66.0</ele></trkpt>
<trkpt lat="51.992590" lon="5.906281"><ele>66.0</ele></trkpt>
<trkpt lat="51.992385" lon="5.905983"><ele>64.3</ele></trkpt>
<trkpt lat="51.992324" lon="5.905907"><ele>64.1</ele></trkpt>
<trkpt lat="51.992025" lon="5.905645"><ele>63.5</ele></trkpt>
</trkseg></trk>
</gpx>