<?xml version="1.0" encoding="UTF-8" standalone="no" ?><gpx xmlns="http://www.topografix.com/GPX/1/1" xmlns:xsi="http://www.w3.org/2001/XMLSchema-instance" creator="GraphHopper" version="1.1" xmlns:gh="https://graphhopper.com/public/schema/gpx/1.1">
<metadata><copyright author="OpenStreetMap contributors"/><link href="http://graphhopper.com"><text>GraphHopper GPX</text></link><time>2024-05-30T12:00:41.418Z</time></metadata>
<trk>
<name>GraphHopper Track</name><desc></desc>
<trkseg><trkpt lat="51.999693" lon="5.891895"><ele>53.9</ele></trkpt>
<trkpt lat="51.999754" lon="5.891876"><ele>54.0</ele></trkpt>
<trkpt lat="51.999829" lon="5.891852"><ele>54.2</ele></trkpt>
<trkpt lat="51.999906" lon="5.891769"><ele>54.5</ele></trkpt>
<trkpt lat="52.000088" lon="5.891505"><ele>55.2</ele></trkpt>
<trkpt lat="52.000185" lon="5.891422"><ele>55.6</ele></trkpt>
<trkpt lat="52.000278" lon="5.891371"><ele>55.9</ele></trkpt>
<trkpt lat="52.000384" lon="5.891333"><ele>56.3</ele></trkpt>
<trkpt lat="52.000507" lon="5.891328"><ele>56.6</ele></trkpt>
<trkpt lat="52.000647" lon="5.891347"><ele>57.1</ele></trkpt>
<trkpt lat="52.000778" lon="5.891402"><ele>57.5</ele></trkpt>
<trkpt lat="52.001236" lon="5.891640"><ele>57.5</ele></trkpt>
<trkpt lat="52.001298" lon="5.891685"><ele>57.4</ele></trkpt>
<trkpt lat="52.001341" lon="5.891735"><ele>57.4</ele></trkpt>
<trkpt lat="52.001392" lon="5.891838"><ele>57.4</ele></trkpt>
<trkpt lat="52.001409" lon="5.891925"><ele>57.4</ele></trkpt>
<trkpt lat="52.001427" lon="5.892015"><ele>57.4</ele></trkpt>
<trkpt lat="52.001439" lon="5.892129"><ele>57.4</ele></trkpt>
<trkpt lat="52.001456" lon="5.892451"><ele>57.8</ele></trkpt>
<trkpt lat="52.001316" lon="5.893112"><ele>59.1</ele></trkpt>
<trkpt lat="52.001293" lon="5.893157"><ele>59.1</ele></trkpt>
</trkseg></trk>
</gpx>