<?xml version="1.0" encoding="UTF-8" standalone="no"?>
<!-- Created with Inkscape (http://www.inkscape.org/) -->

<svg
   xmlns:dc="http://purl.org/dc/elements/1.1/"
   xmlns:cc="http://creativecommons.org/ns#"
   xmlns:rdf="http://www.w3.org/1999/02/22-rdf-syntax-ns#"
   xmlns:svg="http://www.w3.org/2000/svg"
   xmlns="http://www.w3.org/2000/svg"
   xmlns:sodipodi="http://sodipodi.sourceforge.net/DTD/sodipodi-0.dtd"
   xmlns:inkscape="http://www.inkscape.org/namespaces/inkscape"
   version="1.1"
   id="svg2"
   xml:space="preserve"
   width="249.44862"
   height="65.942123"
   viewBox="0 0 249.44863 65.942124"
   sodipodi:docname="Gemeente_Arnhem.svg"
   inkscape:version="0.92.5 (2060ec1f9f, 2020-04-08)"><metadata
     id="metadata8"><rdf:RDF><cc:Work
         rdf:about=""><dc:format>image/svg+xml</dc:format><dc:type
           rdf:resource="http://purl.org/dc/dcmitype/StillImage" /><dc:title></dc:title></cc:Work></rdf:RDF></metadata><defs
     id="defs6" /><sodipodi:namedview
     pagecolor="#ffffff"
     bordercolor="#666666"
     borderopacity="1"
     objecttolerance="10"
     gridtolerance="10"
     guidetolerance="10"
     inkscape:pageopacity="0"
     inkscape:pageshadow="2"
     inkscape:window-width="1816"
     inkscape:window-height="616"
     id="namedview4"
     showgrid="false"
     fit-margin-top="0"
     fit-margin-left="0"
     fit-margin-right="0"
     fit-margin-bottom="0"
     inkscape:zoom="1.8247423"
     inkscape:cx="29.235934"
     inkscape:cy="38.92902"
     inkscape:window-x="315"
     inkscape:window-y="400"
     inkscape:window-maximized="0"
     inkscape:current-layer="g10" /><g
     id="g10"
     inkscape:groupmode="layer"
     inkscape:label="ink_ext_XXXXXX"
     transform="matrix(1.3333333,0,0,-1.3333333,-102.16619,133.74864)"><path
       inkscape:connector-curvature="0"
       id="path16"
       style="fill:#000000;fill-opacity:1;fill-rule:evenodd;stroke:none;stroke-width:0.1"
       d="m 263.71112,97.199484 c -0.171,1.197 -1.197,1.778 -3.01,1.778 l -1.676,-0.512 -1.025,-0.993 -1.916,1.608 c -1.299,0.787 -2.291,1.196996 -2.976,1.196996 -0.752,0 -1.71,-0.409996 -2.941,-1.162996 -1.231,-0.649 -1.881,-1.163 -1.984,-1.539 -0.137,0.376 -0.786,0.89 -1.915,1.539 -1.197,0.753 -2.155,1.162996 -2.873,1.162996 v 0.034 c -0.684,0 -1.642,-0.375996 -2.839,-1.196996 -1.162,-0.649 -1.812,-1.163 -1.949,-1.539 -0.103,0.376 -0.753,0.89 -1.95,1.539 -1.265,0.753 -2.257,1.162996 -2.975,1.162996 -0.718,0 -1.711,-0.409996 -2.907,-1.162996 -1.232,-0.718 -1.847,-1.265 -1.916,-1.642 l -1.163,0.993 -1.607,0.512 c -1.813,0 -2.839,-0.581 -3.01,-1.778 2.052,-0.616 3.078,-1.71 3.078,-3.215 h 34.476 c -0.034,1.505 0.992,2.599 3.078,3.215" /><path
       inkscape:connector-curvature="0"
       id="path18"
       style="fill:#000000;fill-opacity:1;fill-rule:evenodd;stroke:none;stroke-width:0.1"
       d="m 258.00012,87.383484 c 0.855,-0.411 0.684,-1.916 -0.582,-4.515 -1.197,-2.6 -2.565,-4.412 -4.104,-5.4722 1.881,-0.5133 4.309,0.3762 7.251,2.6672 v 11.834 h -34.374 v -11.834 c 2.976,-2.291 5.404,-3.1805 7.285,-2.6672 -1.539,1.0602 -2.907,2.8722 -4.104,5.4722 -1.265,2.599 -1.437,4.104 -0.513,4.515 l 1.608,-1.916 3.317,-3.181 c 3.215,-2.804 5.438,-3.864 6.669,-3.214 0.377,0.273 0.377,1.265 0,2.975 -0.444,1.607 -0.786,2.565 -1.094,2.805 -1.094,-0.958 -2.018,-1.3 -2.805,-1.095 -0.649,0.137 -0.923,0.411 -0.889,0.89 l 1.71,0.102 c 0.616,0.308 0.924,0.752 0.924,1.402 -1.745,-1.334 -3.044,-1.47 -3.831,-0.376 l -0.171,0.616 c 0.035,0.239 0.137,0.342 0.308,0.308 0.411,-1.266 1.539,-1.163 3.352,0.307 -0.719,0.479 -1.539,0.274 -2.497,-0.615 -0.239,0.171 -0.308,0.479 -0.205,0.889 0.034,0.445 0.273,0.787 0.718,1.026 0.787,0.547 2.805,1.095 6.02,1.676 -0.24,-0.615 -0.171,-2.292 0.273,-4.994 0.445,-2.667 0.821,-4.172 1.129,-4.514 0.308,0.376 0.684,1.881 1.163,4.514 0.41,2.702 0.479,4.379 0.239,4.994 3.215,-0.581 5.233,-1.129 6.088,-1.676 0.411,-0.239 0.616,-0.581 0.718,-1.026 l -0.273,-0.889 c -0.992,0.889 -1.813,1.094 -2.463,0.615 1.745,-1.505 2.839,-1.607 3.318,-0.307 l 0.308,-0.308 -0.171,-0.684 c -0.479,-0.616 -1.129,-0.787 -2.018,-0.514 -0.65,0.172 -1.266,0.479 -1.813,0.958 -0.034,-0.684 0.274,-1.163 0.924,-1.47 l 1.71,-0.034 c 0.034,-0.479 -0.24,-0.753 -0.855,-0.89 -0.821,-0.205 -1.711,0.137 -2.771,1.095 -0.342,-0.24 -0.718,-1.198 -1.094,-2.805 -0.445,-1.71 -0.479,-2.702 -0.034,-2.975 1.163,-0.6844 3.386,0.376 6.635,3.214 l 4.994,5.097" /><path
       inkscape:connector-curvature="0"
       id="path20"
       style="fill:#000000;fill-opacity:1;fill-rule:evenodd;stroke:none;stroke-width:0.1"
       d="m 213.77612,91.179484 v 0.684 h -2.6 v -4.857 h 2.908 v 0.65 h -1.916 v 1.539 h 1.608 v 0.616 h -1.608 v 1.368 h 1.608" /><path
       inkscape:connector-curvature="0"
       id="path22"
       style="fill:#000000;fill-opacity:1;fill-rule:evenodd;stroke:none;stroke-width:0.1"
       d="m 202.14712,91.179484 h 1.437 v -4.173 h 0.991 v 4.173 h 1.505 v 0.684 h -3.933 v -0.684" /><path
       inkscape:connector-curvature="0"
       id="path24"
       style="fill:#000000;fill-opacity:1;fill-rule:evenodd;stroke:none;stroke-width:0.1"
       d="m 242.47212,63.338884 c 0.034,0.5812 -0.411,0.4105 -1.3,-0.5473 -0.992,-0.923 -1.744,-1.984 -2.292,-3.1465 -0.068,-0.1371 -0.205,-0.1371 -0.376,0 l -0.445,0.2051 c -1.129,-0.6156 -1.744,-1.1629 -1.847,-1.6074 l 0.856,-0.1027 c 0.376,0 0.65,-0.1028 0.889,-0.2735 0.308,-0.4445 0.171,-0.9578 -0.376,-1.5734 -1.095,1.0262 -1.984,1.3 -2.771,0.7863 -0.65,-0.3418 -0.957,-0.8547 -0.923,-1.5387 -0.377,-0.0339 -0.753,0.0684 -1.095,0.3079 -0.342,0.2734 -0.478,0.5468 -0.342,0.8207 0.103,0.3078 0.376,0.5472 0.821,0.7183 l 0.821,0.5473 c -0.205,0.3078 -0.41,0.3762 -0.616,0.2051 l -0.616,-0.3758 c -0.376,-0.0688 -0.923,0.1367 -1.675,0.6152 l -1.3,0.1024 c -0.308,0.3421 -0.376,0.6843 -0.137,1.0949 0.171,0.4789 0.548,0.684 1.163,0.684 l 1.368,-0.8895 c 0.513,-0.4785 0.889,-0.5473 1.129,-0.2051 0.205,0.3762 0.205,0.7524 0,1.1629 -0.24,0.4785 -0.684,0.5813 -1.402,0.3422 -0.103,0.3078 0,0.6152 0.273,0.9574 0.376,0.3766 0.992,0.445 1.813,0.1368 0.445,-0.1368 0.65,-0.4102 0.616,-0.8895 l -0.137,-1.0258 c 0.068,-0.2734 0.41,-0.3762 1.026,-0.2734 0.649,0.1367 1.163,0.5129 1.505,1.0945 l -0.103,0.4102 c -0.171,0.1367 -0.205,0.2738 -0.103,0.4105 l 2.873,2.8731 c 0.377,0.6156 0.24,0.8207 -0.375,0.6839 -2.805,-1.1289 -5.131,-1.505 -6.944,-1.0945 -1.436,0.3078 -2.189,0.8551 -2.291,1.6762 l 2.12,0.034 c 1.471,0.2394 2.531,0.9234 3.113,2.0179 l -5.028,-0.3421 c -1.71,0.4105 -2.599,1.1289 -2.702,2.2234 l 2.839,-0.1711 c 2.086,0.0684 3.488,0.65 4.275,1.7785 -1.812,-0.6156 -3.728,-0.6496 -5.78,-0.1027 -1.197,0.3762 -2.121,0.8211 -2.805,1.2996 v -17.7168 c 0.103,-0.9234 0.684,-1.5734 1.778,-1.984 l 15.426,-1.8125 c 1.676,0.4445 3.66,0.7524 5.985,0.9238 l 9.475,0.8887 c 1.06,0.4106 1.641,1.0606 1.778,1.984 v 17.7168 c -0.684,-0.4785 -1.642,-0.9234 -2.839,-1.2996 -2.018,-0.5469 -3.933,-0.5129 -5.78,0.1027 0.752,-1.1285 2.155,-1.7101 4.275,-1.7785 l 2.907,0.1711 c -0.171,-1.0945 -1.06,-1.8129 -2.77,-2.2234 l -5.028,0.3421 c 0.616,-1.0945 1.677,-1.7785 3.181,-2.0179 l 2.052,-0.034 c -0.103,-0.8211 -0.855,-1.3684 -2.257,-1.6762 -1.881,-0.4105 -4.207,-0.0344 -6.977,1.0945 -0.616,0.1368 -0.753,-0.0683 -0.376,-0.6839 0.752,-0.9918 1.675,-1.9153 2.872,-2.8731 l -0.068,-0.4105 c -0.137,-0.1367 -0.171,-0.2739 -0.102,-0.4102 0.307,-0.5816 0.786,-0.9578 1.47,-1.0945 0.582,-0.1028 0.924,0 1.026,0.2734 l -0.102,1.0258 c -0.069,0.4793 0.136,0.7527 0.581,0.8895 l 1.813,-0.1368 c 0.274,-0.3422 0.376,-0.6496 0.239,-0.9574 -0.684,0.2391 -1.129,0.1363 -1.368,-0.3422 -0.205,-0.4105 -0.205,-0.7867 0.034,-1.1629 0.205,-0.3422 0.582,-0.2734 1.095,0.2051 0.615,0.616 1.06,0.8895 1.368,0.8895 0.581,0 1.026,-0.2051 1.231,-0.684 0.137,-0.4106 0.069,-0.7528 -0.205,-1.0949 l -1.3,-0.1024 c -0.752,-0.4785 -1.3,-0.684 -1.675,-0.6152 l -0.616,0.3758 c -0.239,0.1711 -0.445,0.1027 -0.616,-0.2051 l 0.821,-0.5473 c 0.445,-0.1711 0.718,-0.4105 0.855,-0.7183 0.102,-0.2739 -0.034,-0.5473 -0.376,-0.8207 -0.343,-0.2395 -0.718,-0.3418 -1.095,-0.3079 0.034,0.65 -0.239,1.1625 -0.889,1.5387 -0.821,0.5137 -1.744,0.2399 -2.805,-0.7863 -0.547,0.65 -0.684,1.1629 -0.342,1.5391 0.171,0.205 0.445,0.3078 0.856,0.3078 l 0.889,0.1027 c -0.171,0.4785 -0.753,1.0262 -1.813,1.6074 -0.137,0.0684 -0.308,0 -0.513,-0.2051 -0.171,-0.1371 -0.308,-0.1371 -0.376,0 -0.548,1.1625 -1.3,2.2235 -2.223,3.1465 -0.959,0.9578 -1.403,1.1285 -1.369,0.5473 0.069,-1.1285 0.65,-2.3598 1.745,-3.6938 1.094,-1.4023 1.676,-2.2918 1.744,-2.7019 0.068,-0.8211 -0.034,-1.4024 -0.308,-1.8813 -0.41,-0.5468 -1.026,-0.7523 -1.881,-0.6156 0.924,0.3762 1.3,1.0945 1.163,2.1891 -0.137,1.0601 -0.615,1.6758 -1.402,1.8465 l -1.197,-1.6071 c 0,-0.2738 0.102,-0.4793 0.376,-0.616 l 0.65,0.0344 c 0.239,0.1023 0.41,0 0.479,-0.2055 0.068,-0.239 -0.137,-0.4785 -0.582,-0.7523 l -0.889,-0.6496 c -0.034,-0.1368 0.034,-0.2395 0.205,-0.3418 0.171,-0.0688 0.205,-0.1711 0.137,-0.3082 l -1.163,-0.9918 -1.094,0.9918 c -0.137,0.1371 -0.137,0.2394 0.068,0.3082 l 0.205,0.3418 -0.855,0.6496 c -0.444,0.2738 -0.616,0.5133 -0.547,0.7523 0.034,0.2055 0.171,0.3078 0.41,0.2055 l 0.684,-0.0344 0.343,0.616 -1.197,1.6071 c -0.787,-0.1707 -1.232,-0.7864 -1.335,-1.8465 -0.171,-1.0946 0.171,-1.8129 1.095,-2.1891 -0.89,-0.1367 -1.471,0.0688 -1.813,0.6156 -0.376,0.4789 -0.479,1.0602 -0.376,1.8813 0.068,0.4101 0.65,1.2996 1.778,2.7019 1.061,1.334 1.642,2.5653 1.711,3.6938" /><path
       inkscape:connector-curvature="0"
       id="path26"
       style="fill:#000000;fill-opacity:1;fill-rule:evenodd;stroke:none;stroke-width:0.1"
       d="m 214.28912,58.550584 v 8.7899 c -0.034,1.5734 -0.479,2.8046 -1.402,3.6257 -0.924,0.8891 -2.258,1.334 -3.934,1.2996 -1.915,0 -3.625,-0.65 -5.164,-1.9156 -0.924,1.2656 -2.429,1.9156 -4.515,1.9156 -2.155,0 -3.797,-0.65 -4.856,-1.9156 h -0.069 v 1.6078 h -4.036 v -13.4074 h 4.105 v 7.9008 c -0.069,2.2914 0.991,3.4203 3.112,3.4203 1.778,0 2.668,-1.0605 2.702,-3.1812 v -8.1399 h 4.104 v 7.9352 c 0,2.257 1.06,3.3859 3.215,3.3859 1.744,0 2.634,-1.0605 2.634,-3.1812 v -8.1399 h 4.104" /><path
       inkscape:connector-curvature="0"
       id="path28"
       style="fill:#000000;fill-opacity:1;fill-rule:evenodd;stroke:none;stroke-width:0.1"
       d="m 169.65472,90.769484 h 0.034 v -3.763 h 1.0262 v 4.857 h -1.1625 l -1.6418,-3.762 -1.5051,3.762 h -1.1969 v -4.857 h 0.8207 v 3.763 l 1.5051,-3.763 h 0.5133 l 1.607,3.763" /><path
       inkscape:connector-curvature="0"
       id="path30"
       style="fill:#000000;fill-opacity:1;fill-rule:evenodd;stroke:none;stroke-width:0.1"
       d="m 157.92352,91.179484 h 1.6757 v 0.684 h -2.5992 v -4.857 h 2.8391 v 0.65 h -1.9156 v 1.539 h 1.6074 v 0.616 h -1.6074 v 1.368" /><path
       inkscape:connector-curvature="0"
       id="path32"
       style="fill:#000000;fill-opacity:1;fill-rule:evenodd;stroke:none;stroke-width:0.1"
       d="m 149.71492,91.897484 c -0.8207,0 -1.4707,-0.239 -1.9836,-0.786 -0.5129,-0.445 -0.7524,-0.992 -0.7184,-1.642 -0.034,-0.752 0.2055,-1.368 0.7184,-1.881 0.5129,-0.445 1.1629,-0.684 1.9836,-0.684 l 1.6074,0.273 v 2.018 h -0.9918 v -1.436 l -0.65,-0.171 c -0.4785,0 -0.8551,0.171 -1.1629,0.479 -0.3418,0.376 -0.5129,0.821 -0.4785,1.334 -0.0344,1.231 0.5473,1.846 1.7441,1.812 l 1.0262,-0.239 0.3078,0.581 -1.4023,0.342" /><path
       inkscape:connector-curvature="0"
       id="path34"
       style="fill:#000000;fill-opacity:1;fill-rule:evenodd;stroke:none;stroke-width:0.1"
       d="m 151.01452,78.251384 h -4.0356 v -19.7008 h 4.1039 v 7.9352 c -0.0683,1.0941 0.2739,1.9492 1.0262,2.5648 0.6156,0.5473 1.4707,0.8211 2.5309,0.8211 2.0523,0 3.0781,-1.0262 3.0781,-3.1125 v -8.2086 h 4.1043 v 8.6192 c 0,3.4203 -1.8465,5.096 -5.5063,5.096 -2.1546,0 -3.8992,-0.65 -5.3015,-1.9156 v 7.9012" /><path
       inkscape:connector-curvature="0"
       id="path36"
       style="fill:#000000;fill-opacity:1;fill-rule:evenodd;stroke:none;stroke-width:0.1"
       d="m 187.13212,91.179484 v 0.684 h -2.599 v -4.857 h 2.838 v 0.65 h -1.846 v 1.539 h 1.539 v 0.616 h -1.539 v 1.368 h 1.607" /><path
       inkscape:connector-curvature="0"
       id="path38"
       style="fill:#000000;fill-opacity:1;fill-rule:evenodd;stroke:none;stroke-width:0.1"
       d="m 193.46012,91.863484 h -0.719 v -4.857 h 0.787 v 3.455 l 2.805,-3.455 h 0.65 v 4.857 h -0.753 v -3.488 l -2.77,3.488" /><path
       inkscape:connector-curvature="0"
       id="path40"
       style="fill:#000000;fill-opacity:1;fill-rule:evenodd;stroke:none;stroke-width:0.1"
       d="m 178.92312,91.863484 h -2.667 v -4.857 h 2.975 v 0.65 h -1.915 v 1.539 h 1.539 v 0.616 h -1.539 v 1.368 h 1.607 v 0.684" /><path
       inkscape:connector-curvature="0"
       id="path42"
       style="fill:#000000;fill-opacity:1;fill-rule:evenodd;stroke:none;stroke-width:0.1"
       d="m 139.07812,67.169784 c -0.0683,3.4203 -1.8812,5.096 -5.507,5.096 -2.1887,0 -3.9672,-0.65 -5.3012,-1.9156 v 1.6078 h -4.0699 v -13.4074 h 4.1043 v 7.9352 c 0,1.0941 0.3418,1.9492 1.0602,2.5648 0.65,0.5473 1.4707,0.8211 2.5312,0.8211 2.0176,0 3.0438,-1.0262 3.0782,-3.1125 v -8.2086 h 4.1042 v 8.6192" /><path
       inkscape:connector-curvature="0"
       id="path44"
       style="fill:#000000;fill-opacity:1;fill-rule:evenodd;stroke:none;stroke-width:0.1"
       d="m 116.98322,68.571684 1.5735,2.4285 c -0.9235,0.8551 -1.8469,1.2656 -2.8047,1.2656 -0.8207,0 -1.6762,-0.5476 -2.668,-1.6757 l -0.8207,-1.0262 h -0.0684 v 2.3941 h -4.0359 v -13.4074 h 4.1043 v 6.6012 c 0,2.5992 0.9234,3.8988 2.8047,3.8988 l 1.9152,-0.4789" /><path
       inkscape:connector-curvature="0"
       id="path46"
       style="fill:#000000;fill-opacity:1;fill-rule:evenodd;stroke:none;stroke-width:0.1"
       d="m 93.178516,64.775584 2.4621,-6.225 h 5.848904 l -9.815604,22.8129 h -4.4125 l -10.63677,-22.8129 h 4.54883 l 2.70194,6.225 z m -4.3441,12.0731 h 0.1031 l 3.4543,-9.3028 h -7.1484 l 3.591,9.3028" /><path
       inkscape:connector-curvature="0"
       id="path48"
       style="fill:#000000;fill-opacity:1;fill-rule:evenodd;stroke:none;stroke-width:0.1"
       d="m 176.73512,72.265784 c -2.292,0 -4.173,-0.6156 -5.6097,-1.8128 -1.539,-1.2997 -2.2914,-2.9411 -2.2914,-4.959 0,-2.1551 0.7867,-3.9336 2.3258,-5.2676 1.5047,-1.3336 3.4543,-1.9836 5.8493,-2.052 2.085,0.034 4.138,0.5469 6.053,1.5047 l -1.197,1.9496 c -1.163,-0.7527 -2.565,-1.0945 -4.139,-1.0945 -1.299,0 -2.359,0.4106 -3.249,1.2313 -0.889,0.8894 -1.2993,1.9156 -1.231,3.1808 h 9.987 c 0.137,2.1207 -0.308,3.8309 -1.368,5.1309 -1.128,1.4703 -2.839,2.1886 -5.13,2.1886 z m -2.634,-3.0097 c 0.547,0.7179 1.402,1.0601 2.565,1.0258 1.984,0 2.873,-1.1286 2.702,-3.42 h -6.0876 c 0,0.9579 0.2391,1.7782 0.8206,2.3942" /></g></svg>