 {
    "trees":
    {
      "uKFBL": {
        "slug": "solitary_oak",
        "image": "/static/img/trees/eik1-600x.jpg",
        "en": {
          "name": "Solitary Oak",
          "description": "Hello, nice to meet you. I'm an Oak and one of the main attractions of Sonsbeekpark. I was planted in 1900. I'm still strong, healthy and balanced. My sprawling branches grow far and wide. You can also recognize me by my grooved bark and lobed leaves.\n\nI offer you, humans, a mirror for self-development in all freedom. From my trunk, therefore, I share story fragments about the Tree of Life and the Oak as an important symbol in our history. At night, I recite poems about Love."
        },
        "nl": {
          "name": "Allenige Eik",
          "description": "Aangenaam, ik ben een Zomereik, en dé publiekstrekker van Sonsbeekpark. In 1900 werd ik aangeplant en ik ben nog altijd sterk, gezond en evenwichtig. Mijn takken lopen breed en grillig uit. Je herkent me ook aan mijn gegroefde schors en mijn gelobde bladeren.\n\nIk bied jullie, mensen, een spiegel voor zelfontwikkeling in alle vrijheid. Vanuit mijn stam deel ik daarom dan ook verhaalfragmenten over de Levensboom en de Eik als belangrijk symbool in onze geschiedenis. 's Nachts reciteer ik gedichten over Liefde."
        }
      },
      "PrkqW": {
        "slug": "european_oak",
        "image": "/static/img/trees/european_oak-600x.jpg",
        "en": {
          "name": "Forest Oak",
          "description": "Dear visitor do you see me well? I stand a little in the back, beyond the newly planted trees. I'm more than 200 years old, like all the other big Oaks in this small forest. Don't confuse us, Oaks, with Beeches. The latter have a grey smooth bark. And our crowns have a far more sprawling and artistic pattern than the Beech's.\n\nI am an adult tree and live very quietly. Together with my peers, we observe and reflect on the effects of climate change. The stories I share from my trunk are stories about the future. At night, I recite poems about Silence."
        },
        "nl": {
          "name": "Boseik",
          "description": "Beste bezoeker, zie je me goed? Ik sta een beetje achterin, voorbij de jonge aangeplante boompjes. Meer dan tweehonderd jaar geleden werd ik aangeplant, net als alle grote Eiken in dit stukje bos. Verwar ons, Eiken, niet met Beuken. Die laatste hebben een grijze gladde schors. En de kruin van een Eik groeit veel grilliger en artistieker dan die van de beuk.\n\nIk ben intussen volwassen en leef erg rustig. Samen met mijn soortgenoten observeren we de effecten van de klimaatverandering en reflecteren daarover. De verhalen die ik deel vanuit mijn stam zijn toekomstverhalen. 's Nachts reciteer ik gedichten over Stilte."
        }
      },
      "LuvpU": {
        "slug": "douglas_fir",
        "image": "/static/img/trees/douglas_fir-600x.jpg",
        "en": {
          "name": "Douglas Fir",
          "description": "Hello, nice to meet you! I belong to one of the most planted tree species in the Netherlands. My wood was used to shore up tunnels in mines. You can recognize me by my cork-like bark and my pine cones with their funny mousetails at each scale.\n\nFrom my heartwood, I share story fragments about planting and managing forests, about exotics like me that bring much profit. At night, I recite poems about Nature."
        },
        "nl": {
          "name": "Douglasspar",
          "description": "Aangenaam, ik behoor tot een van de meest aangeplante boomsoorten in Nederland. Mijn hout werd gebruikt om de gangen in de mijnen te stutten. Je herkent me aan mijn kurkachtige schors en mijn dennenappels dragen grappige muizenstaartjes bij elke schub.\n\nVanuit mijn kernhout deel ik verhaalfragmenten over het aanplanten en beheren van bossen, over exoten als wij die veel winst opleveren. 's Nachts reciteer ik gedichten over Natuur."
        }
      },
      "RhPdb": {
        "slug": "european_horse_chestnut",
        "image": "/static/img/trees/european_horse_chestnut-600x.jpg",
        "en": {
          "name": "Horse Chestnut",
          "description": "Hello, I'm a White Horse Chestnut, living near Witte Villa. You can recognize me by my wounded trunk. I had a lot of uninvited visitors, fungi and bacteria. But you can see how healthy and vibrant my crown still is. And did you see my beautiful white flowers last spring?\n\nOver the years, the villa's residents and the park's users changed. From my trunk, I shares story fragments about that history. At night, I recite poems about Death."
        },
        "nl": {
          "name": "Paardenkastanje",
          "description": "Hallo, ik ben een Witte Paardenkastanje, in 1900 aangeplant door de toenmalige eigenaar van de Witte Villa. Je herkent me aan mijn gewonde stam. Ik kreeg veel ongenodigde bezoekers, schimmels en bacteriën. Maar je ziet hoe gezond en levendig mijn kruin nog is. En zag je mijn mooie witte kaarsbloemen deze lente?\n\nDoorheen de jaren veranderden de bewoners van de villa en de gebruikers van het park. Vanuit mijn stam deel ik verhaalfragmenten over die geschiedenis. 's Nachts reciteer ik gedichten over de Dood."
        }
      },
      "dWThg": {
        "slug": "red_beech",
        "image": "/static/img/trees/beuken-600x.jpg",
        "en": {
          "name": "Red Beech",
          "description": "Here, at Zijpendaal Castle, it looks like there is one giant Beech, but we are five. Our thin bark can’t tolerate the Sun. So we zip ourselves up in a coat of leaves. The space between our trunks is like a temple, quiet and cool. I am the big Red Beech on the front left.\n\nThe research on Traces of Slavery recently published awakens old memories in my trunk. I have known Anna van Vossenburg personally, and share those experiences with you. At night, I give you poems on Magic."
        },
        "nl": {
          "name": "Rode Beuk",
          "description": "Hier, bij het kasteel van Zypendaal, lijkt één reusachtige Beuk te leven, maar we zijn met vijf. Onze flinterdunne schors verdraagt geen zon. Daarom ritsen wij ons dicht met een jas van bladeren. Tussen ons in is het als in een tempel, rustig en koel. Ik ben de grote Rode Beuk links vooraan.\n\nHet onderzoek naar Sporen van Slavernij dat onlangs werd gepubliceerd, maakt oude herinneringen wakker in mijn stam. Ik heb Anna van Vossenburg persoonlijk gekend, en deel die ervaringen vanuit mijn stam. 's Nachts geef ik je gedichten over Magie."
        }
      },
      "qVbjb": {
        "slug": "sweet_chestnut",
        "image": "/static/img/trees/3watchers-600x.jpg",
        "en": {
          "name": "Sweet Chestnut",
          "description": "We were planted three hundred and seventy-five years ago as a tribute to the Romans who brought the Sweet Chestnut to the North. We have been here almost as long as the Church of Eusebius. Rembrandt visited us. Once you have met us, we will gladly travel with you in your memory.\n\nI am a teacher of Time in all its aspects. From my cellular memory, I share stories about Trees in world myths and traditions. At night, I recite poems about Time."
        },
        "nl": {
          "name": "Poortwachter",
          "description": "Meer dan 375 jaar geleden werden wij, drie tamme Kastanjes, aangeplant als eerbetoon aan de Romeinen die onze soort tot in het Noorden brachten. We staan hier bijna even lang als de Eusebiuskerk. Ooit kregen we bezoek van Rembrandt. Heb je ons eenmaal ontmoet, dan reizen we graag mee in je herinnering.\n\nAls Poortwachter ben ik een leermeester over de Tijd in al haar belevingen. Vanuit mijn celgeheugen deel ik verhalen over bomen in wereldse mythen en tradities. 's Nachts reciteer ik gedichten over Tijd."
        }
      }
    },
    "about": {
      "en": "[Arnhemse Bomen Vertellen](https://arnhemsebomenvertellen.nl/) was an artistic installation from 15 June till 15 December 2024. The sensors have since disappeared, but this bench still invites you to enter into a relationship with the tree in front.\n\nThis art project was a commission by the municipality of Arnhem, created by [Anaïs Berck](https://www.anaisberck.be/), an art collective of people, trees and algorithms.",
      "nl": "[Arnhemse Bomen Vertellen](https://arnhemsebomenvertellen.nl/) was een artistieke installatie van 15 juni tot 15 december 2024. De sensoren zijn intussen verdwenen, maar dit bankje nodigt nog altijd uit om een relatie aan te gaan met de boom voor je.\n\nHet kunstproject was een creatie van [Anaïs Berck](https://www.anaisberck.be/), een collectief van mensen, bomen en algoritmes, in opdracht van de Gemeente Arnhem."
    }
}